<?xml version="1.0" encoding="UTF-8" standalone="no"?>
<!-- Created with Inkscape (http://www.inkscape.org/) -->

<svg
   xmlns:dc="http://purl.org/dc/elements/1.1/"
   xmlns:cc="http://creativecommons.org/ns#"
   xmlns:rdf="http://www.w3.org/1999/02/22-rdf-syntax-ns#"
   xmlns:svg="http://www.w3.org/2000/svg"
   xmlns="http://www.w3.org/2000/svg"
   xmlns:sodipodi="http://sodipodi.sourceforge.net/DTD/sodipodi-0.dtd"
   xmlns:inkscape="http://www.inkscape.org/namespaces/inkscape"
   width="16"
   height="16"
   viewBox="0 0 4.2333332 4.2333335"
   version="1.1"
   id="svg1206"
   inkscape:version="0.92.3 (2405546, 2018-03-11)"
   sodipodi:docname="ccdik_chain.svg">
  <defs
     id="defs1200" />
  <sodipodi:namedview
     id="base"
     pagecolor="#ffffff"
     bordercolor="#666666"
     borderopacity="1.0"
     inkscape:pageopacity="0.0"
     inkscape:pageshadow="2"
     inkscape:zoom="11.2"
     inkscape:cx="8.9183543"
     inkscape:cy="5.1220051"
     inkscape:document-units="px"
     inkscape:current-layer="layer1"
     showgrid="false"
     units="px"
     inkscape:window-width="1920"
     inkscape:window-height="1055"
     inkscape:window-x="1920"
     inkscape:window-y="0"
     inkscape:window-maximized="1" />
  <metadata
     id="metadata1203">
    <rdf:RDF>
      <cc:Work
         rdf:about="">
        <dc:format>image/svg+xml</dc:format>
        <dc:type
           rdf:resource="http://purl.org/dc/dcmitype/StillImage" />
        <dc:title></dc:title>
      </cc:Work>
    </rdf:RDF>
  </metadata>
  <g
     inkscape:label="Layer 1"
     inkscape:groupmode="layer"
     id="layer1"
     transform="translate(0,-292.76665)">
    <g
       id="g957"
       style="font-style:normal;font-weight:normal;font-size:5.91359997px;line-height:125%;font-family:sans-serif;letter-spacing:0px;word-spacing:0px;fill:#fc0080;fill-opacity:1;stroke:none;stroke-width:0.26458332px;stroke-linecap:butt;stroke-linejoin:miter;stroke-opacity:1"
       aria-label="CCDIK"
       transform="translate(1.1112504,69.744155)">
      <path
         id="path947"
         style="font-style:normal;font-variant:normal;font-weight:normal;font-stretch:normal;font-size:0.98559994px;font-family:Numbers;-inkscape-font-specification:Numbers;fill:#fc0080;fill-opacity:1;stroke-width:0.26458332px"
         d="m -0.78098327,224.02203 v -0.616 h 0.61599996 v 0.1232 h -0.49279997 v 0.3696 h 0.49279997 v 0.1232 z"
         inkscape:connector-curvature="0" />
      <path
         id="path949"
         style="font-style:normal;font-variant:normal;font-weight:normal;font-stretch:normal;font-size:0.98559994px;font-family:Numbers;-inkscape-font-specification:Numbers;fill:#fc0080;fill-opacity:1;stroke-width:0.26458332px"
         d="m -0.04178333,224.02203 v -0.616 h 0.61599996 v 0.1232 H 0.08141666 v 0.3696 h 0.49279997 v 0.1232 z"
         inkscape:connector-curvature="0" />
      <path
         id="path951"
         style="font-style:normal;font-variant:normal;font-weight:normal;font-stretch:normal;font-size:0.98559994px;font-family:Numbers;-inkscape-font-specification:Numbers;fill:#fc0080;fill-opacity:1;stroke-width:0.26458332px"
         d="m 1.1902166,223.89883 v -0.3696 h 0.1232 v 0.3696 z m -0.4928,0.1232 v -0.616 h 0.4928 v 0.1232 h -0.3696 v 0.3696 h 0.3696 v 0.1232 z"
         inkscape:connector-curvature="0" />
      <path
         id="path953"
         style="font-style:normal;font-variant:normal;font-weight:normal;font-stretch:normal;font-size:0.98559994px;font-family:Numbers;-inkscape-font-specification:Numbers;fill:#fc0080;fill-opacity:1;stroke-width:0.26458332px"
         d="m 1.4366166,224.02203 v -0.1232 h 0.2464 v -0.3696 h -0.2464 v -0.1232 h 0.616 v 0.1232 h -0.2464 v 0.3696 h 0.2464 v 0.1232 z"
         inkscape:connector-curvature="0" />
      <path
         id="path955"
         style="font-style:normal;font-variant:normal;font-weight:normal;font-stretch:normal;font-size:0.98559994px;font-family:Numbers;-inkscape-font-specification:Numbers;fill:#fc0080;fill-opacity:1;stroke-width:0.26458332px"
         d="m 2.6686164,224.02203 v -0.2464 h 0.1232 v 0.2464 z m -0.4927999,0 v -0.616 h 0.1232 v 0.2464 h 0.3695999 v 0.1232 H 2.2990165 v 0.2464 z m 0.4927999,-0.3696 v -0.2464 h 0.1232 v 0.2464 z"
         inkscape:connector-curvature="0" />
    </g>
    <g
       id="g1166"
       transform="translate(0.9514989,65.215685)"
       style="fill:#fc0080;fill-opacity:1">
      <path
         sodipodi:nodetypes="cccccccccccccccccccc"
         inkscape:connector-curvature="0"
         id="path1059"
         d="m 0.4993026,229.56899 c -0.005,0.005 -0.0106,0.009 -0.0155,0.0134 l -0.254248,0.25425 -0.251665,0.25166 c -0.242379,0.24239 -0.281969,0.63632 -0.04134,0.87695 0.240633,0.24064 0.634584,0.20156 0.876949,-0.0408 l 0.252181,-0.25218 0.253732,-0.25373 c 0.156744,-0.15674 0.22524,-0.3759 0.190686,-0.57671 h -0.319877 c -0.08716,0 -0.08785,0.0176 -0.08785,0.0176 0.03829,0.0736 0.02911,0.18638 -0.06408,0.27957 l -0.252181,0.25218 -0.253731,0.25218 c -0.110454,0.11049 -0.24998,0.10915 -0.31626,0.0429 -0.06626,-0.0662 -0.06755,-0.20583 0.04289,-0.31626 l 0.202055,-0.20412 c -0.03445,-0.0798 -0.05426,-0.16743 -0.05426,-0.26149 -10e-7,-0.12426 0.03561,-0.23649 0.0925,-0.33538 z"
         style="color:#000000;font-style:normal;font-variant:normal;font-weight:normal;font-stretch:normal;font-size:medium;line-height:normal;font-family:sans-serif;font-variant-ligatures:normal;font-variant-position:normal;font-variant-caps:normal;font-variant-numeric:normal;font-variant-alternates:normal;font-feature-settings:normal;text-indent:0;text-align:start;text-decoration:none;text-decoration-line:none;text-decoration-style:solid;text-decoration-color:#000000;letter-spacing:normal;word-spacing:normal;text-transform:none;writing-mode:lr-tb;direction:ltr;text-orientation:mixed;dominant-baseline:auto;baseline-shift:baseline;text-anchor:start;white-space:normal;shape-padding:0;clip-rule:nonzero;display:inline;overflow:visible;visibility:visible;opacity:1;isolation:auto;mix-blend-mode:normal;color-interpolation:sRGB;color-interpolation-filters:linearRGB;solid-color:#000000;solid-opacity:1;vector-effect:none;fill:#fc0080;fill-opacity:1;fill-rule:nonzero;stroke:none;stroke-width:0.39687499;stroke-linecap:round;stroke-linejoin:round;stroke-miterlimit:4;stroke-dasharray:none;stroke-dashoffset:0;stroke-opacity:1;color-rendering:auto;image-rendering:auto;shape-rendering:auto;text-rendering:auto;enable-background:accumulate" />
      <path
         inkscape:connector-curvature="0"
         id="path1103"
         d="m 1.1902166,229.3137 c -0.342773,10e-6 -0.650093,0.2514 -0.65009,0.5917 -2e-6,0.15085 0.06252,0.28217 0.15968,0.38395 l 0.24443,-0.24391 c 0.01524,-0.0152 0.0254,-0.0294 0.03256,-0.0424 -0.02365,-0.0308 -0.04031,-0.0638 -0.04031,-0.0977 -10e-7,-0.0937 0.09754,-0.19533 0.253732,-0.19534 h 0.3576 0.357085 c 0.156206,-1e-5 0.25218,0.10164 0.252181,0.19534 10e-7,0.0937 -0.09598,0.19533 -0.252181,0.19534 h -0.273886 c -0.03065,0.14536 -0.09932,0.28425 -0.206189,0.39636 h 0.12299 0.357085 c 0.342765,0 0.65061,-0.25139 0.650606,-0.5917 -3e-6,-0.34029 -0.307808,-0.59173 -0.650606,-0.5917 h -0.357085 z"
         style="color:#000000;font-style:normal;font-variant:normal;font-weight:normal;font-stretch:normal;font-size:medium;line-height:normal;font-family:sans-serif;font-variant-ligatures:normal;font-variant-position:normal;font-variant-caps:normal;font-variant-numeric:normal;font-variant-alternates:normal;font-feature-settings:normal;text-indent:0;text-align:start;text-decoration:none;text-decoration-line:none;text-decoration-style:solid;text-decoration-color:#000000;letter-spacing:normal;word-spacing:normal;text-transform:none;writing-mode:lr-tb;direction:ltr;text-orientation:mixed;dominant-baseline:auto;baseline-shift:baseline;text-anchor:start;white-space:normal;shape-padding:0;clip-rule:nonzero;display:inline;overflow:visible;visibility:visible;opacity:1;isolation:auto;mix-blend-mode:normal;color-interpolation:sRGB;color-interpolation-filters:linearRGB;solid-color:#000000;solid-opacity:1;vector-effect:none;fill:#fc0080;fill-opacity:1;fill-rule:nonzero;stroke:none;stroke-width:0.39687499;stroke-linecap:round;stroke-linejoin:round;stroke-miterlimit:4;stroke-dasharray:none;stroke-dashoffset:0;stroke-opacity:1;color-rendering:auto;image-rendering:auto;shape-rendering:auto;text-rendering:auto;enable-background:accumulate" />
    </g>
  </g>
</svg>
